-------------------------------------------------------------------------------
Test set: org.springframework.webflow.samples.booking.BookingFlowExecutionTests
-------------------------------------------------------------------------------
Tests run: 3, Failures: 0, Errors: 0, Skipped: 0, Time elapsed: 9.225 sec
